%YAML 1.1
%TAG !u! tag:unity3d.com,2011:
--- !u!114 &11400000
MonoBehaviour:
  m_ObjectHideFlags: 0
  m_CorrespondingSourceObject: {fileID: 0}
  m_PrefabInstance: {fileID: 0}
  m_PrefabAsset: {fileID: 0}
  m_GameObject: {fileID: 0}
  m_Enabled: 1
  m_EditorHideFlags: 0
  m_Script: {fileID: 11500000, guid: 24ee5cfe4dc62e74aac0491ee53f4c56, type: 3}
  m_Name: CharacterConfig
  m_EditorClassIdentifier: 
  _runningStateConfig:
    _moveSpeed: 5
    _walkSpeed: 1
    _runSpeed: 10
  _airborneStateConfig:
    _jumpingStateConfig:
      _maxHeight: 4
      _timeToReachMaxHeight: 0.5
    <Speed>k__BackingField: 5
